%YAML 1.1
%TAG !u! tag:unity3d.com,2011:
--- !u!114 &11400000
MonoBehaviour:
  m_ObjectHideFlags: 0
  m_PrefabParentObject: {fileID: 0}
  m_PrefabInternal: {fileID: 0}
  m_GameObject: {fileID: 0}
  m_Enabled: 1
  m_EditorHideFlags: 0
  m_Script: {fileID: 11500000, guid: 3fa27c32ee8d6e84fa2382814933091e, type: 3}
  m_Name: PanelStack
  m_EditorClassIdentifier: 
  onPanelTransition: {fileID: 11400000, guid: 30d69ea8f4fbf48bd9824d2309247d5a, type: 2}
  defaultPanel: {fileID: 11400000, guid: 81887a5803b3145e3a24592d6c7b94d9, type: 2}
