%YAML 1.1
%TAG !u! tag:unity3d.com,2011:
--- !u!114 &11400000
MonoBehaviour:
  m_ObjectHideFlags: 0
  m_PrefabParentObject: {fileID: 0}
  m_PrefabInternal: {fileID: 0}
  m_GameObject: {fileID: 0}
  m_Enabled: 1
  m_EditorHideFlags: 0
  m_Script: {fileID: 11500000, guid: bab6772996ecf4b1d883ea0c6d4117c6, type: 3}
  m_Name: hard93
  m_EditorClassIdentifier: 
  question: Where is the busiest McDonald's in the world?
  correct: Munich
  wrong:
  - Tokyo
  - New York
