%YAML 1.1
%TAG !u! tag:unity3d.com,2011:
--- !u!114 &11400000
MonoBehaviour:
  m_ObjectHideFlags: 0
  m_PrefabParentObject: {fileID: 0}
  m_PrefabInternal: {fileID: 0}
  m_GameObject: {fileID: 0}
  m_Enabled: 1
  m_EditorHideFlags: 0
  m_Script: {fileID: 11500000, guid: bab6772996ecf4b1d883ea0c6d4117c6, type: 3}
  m_Name: hard27
  m_EditorClassIdentifier: 
  question: Academy Awards 2009 Best Picture?
  correct: The Hurt Locker
  wrong:
  - The Aviator
  - The Artist
