%YAML 1.1
%TAG !u! tag:unity3d.com,2011:
--- !u!1045 &1
EditorBuildSettings:
  m_ObjectHideFlags: 0
  serializedVersion: 2
  m_Scenes:
  - enabled: 1
    path: Assets/Game/Scene/Start.unity
    guid: c125d9bfa9da548f0aa1f51884f75cfb
  - enabled: 1
    path: Assets/Game/Scene/SinglePlayerRace.unity
    guid: 951aa4c90090547379bc750382353339
  - enabled: 1
    path: Assets/Game/Scene/TwoPlayerRace.unity
    guid: 288acd34a59c2480599fc014dde7c86b
